…
``` r
missing_table <- miss_var_summary(data)
missing_table
```

```
## # A tibble: 431 × 3
##    variable                       n_miss pct_miss
##    <chr>                           <int>    <num>
##  1 DIS_CARDIO_PREM_HD_FEMALE_EVER  41081     99.7
##  2 DIS_CARDIO_PREM_HD_MALE_EVER    41061     99.7
##  3 DIS_MH_BIPOLAR_EVER             40914     99.3
##  4 DIS_EAR_TINNITUS_NATURE         40880     99.3
##  5 DIS_ENDO_TD_AGE                 40862     99.2
##  6 DIS_ENDO_SUGAR_AGE              40861     99.2
##  7 DIS_RESP_OTHER_EVER             40858     99.2
##  8 DIS_MH_EATING_EVER              40857     99.2
##  9 DIS_LIVER_FATTY_EVER            40856     99.2
## 10 DIS_EAR_TINNITUS_FREQ           40854     99.2
## # ℹ 421 more rows
```
…
``` r
data <- data %>%
          select(where(~sum(is.na(.x))/length(.x) < 0.80))

missing_table <- miss_var_summary(data)
```

``` r
missing_table <- miss_var_summary(data)
missing_table
```

```
## # A tibble: 247 × 3
##    variable                  n_miss pct_miss
##    <chr>                      <int>    <num>
##  1 SMK_CIG_WHOLE_ONSET        32020     77.7
##  2 DIS_ARTHRITIS_TYPE2        29704     72.1
##  3 MSD11_CMA                  29574     71.8
##  4 DIS_ARTHRITIS_TYPE3        29126     70.7
##  5 DIS_CARDIO_HD_EVER         24566     59.6
##  6 DIS_RESP_SLEEP_APNEA_AGE   23938     58.1
##  7 DIS_NEURO_MIGRAINE_AGE     23786     57.8
##  8 DIS_ENDO_HB_CHOL_AGE       23625     57.4
##  9 DIS_MH_ANXIETY_AGE         23334     56.7
## 10 DIS_RESP_SLEEP_APNEA_EVER  23308     56.6
## # ℹ 237 more rows
```
…
